^C:\SOFTWARE\WORDSEARCH\WORDSEARCH.CPP|C:\SOFTWARE\WORDSEARCH\WORDSEARCHWINDOW.CPP
C:\SOFTWARE\WORDSEARCH\X64\DEBUG\WORDSEARCHWINDOW.OBJ
C:\SOFTWARE\WORDSEARCH\X64\DEBUG\WORDSEARCH.OBJ
^C:\SOFTWARE\WORDSEARCH\STDAFX.CPP
C:\SOFTWARE\WORDSEARCH\X64\DEBUG\WORDSEARCH.PCH
C:\SOFTWARE\WORDSEARCH\X64\DEBUG\VC142.PDB
C:\SOFTWARE\WORDSEARCH\X64\DEBUG\STDAFX.OBJ
^C:\SOFTWARE\WORDSEARCH\GENERATEDFILES\QRC_WORDSEARCH.CPP
C:\SOFTWARE\WORDSEARCH\X64\DEBUG\VC142.PDB
C:\SOFTWARE\WORDSEARCH\X64\DEBUG\QRC_WORDSEARCH.OBJ
^C:\SOFTWARE\WORDSEARCH\GENERATEDFILES\DEBUG\MOC_WORDSEARCH.CPP|C:\SOFTWARE\WORDSEARCH\GENERATEDFILES\DEBUG\MOC_WORDSEARCHWINDOW.CPP|C:\SOFTWARE\WORDSEARCH\MAIN.CPP|C:\SOFTWARE\WORDSEARCH\WORDSEARCH.CPP|C:\SOFTWARE\WORDSEARCH\WORDSEARCHWINDOW.CPP
C:\SOFTWARE\WORDSEARCH\X64\DEBUG\MOC_WORDSEARCH.OBJ
C:\SOFTWARE\WORDSEARCH\X64\DEBUG\WORDSEARCH.OBJ
C:\SOFTWARE\WORDSEARCH\X64\DEBUG\MAIN.OBJ
C:\SOFTWARE\WORDSEARCH\X64\DEBUG\MOC_WORDSEARCHWINDOW.OBJ
^C:\SOFTWARE\WORDSEARCH\GENERATEDFILES\DEBUG\MOC_WORDSEARCH.CPP
C:\SOFTWARE\WORDSEARCH\X64\DEBUG\MOC_WORDSEARCH.OBJ
^C:\SOFTWARE\WORDSEARCH\GENERATEDFILES\DEBUG\MOC_WORDSEARCHWINDOW.CPP
C:\SOFTWARE\WORDSEARCH\X64\DEBUG\MOC_WORDSEARCHWINDOW.OBJ
^C:\SOFTWARE\WORDSEARCH\WORDSEARCH.CPP
C:\SOFTWARE\WORDSEARCH\X64\DEBUG\WORDSEARCH.OBJ
^C:\SOFTWARE\WORDSEARCH\MAIN.CPP
C:\SOFTWARE\WORDSEARCH\X64\DEBUG\MAIN.OBJ
^C:\SOFTWARE\WORDSEARCH\WORDSEARCHWINDOW.CPP
C:\SOFTWARE\WORDSEARCH\X64\DEBUG\VC142.PDB
C:\SOFTWARE\WORDSEARCH\X64\DEBUG\WORDSEARCHWINDOW.OBJ
