#Command: "C:\Program Files (x86)\Microsoft Visual Studio\2019\Community\VC\Tools\MSVC\14.21.27702\bin\HostX86\x64\link.exe" /ERRORREPORT:PROMPT @C:\Users\Joshua\AppData\Local\Temp\tmpd8621fa4da8c45489ef7431f1b446dde.rsp /nologo /incremental /fullbuild
^C:\SOFTWARE\WORDSEARCH\X64\DEBUG\MAIN.OBJ|C:\SOFTWARE\WORDSEARCH\X64\DEBUG\MOC_WORDSEARCH.OBJ|C:\SOFTWARE\WORDSEARCH\X64\DEBUG\MOC_WORDSEARCHWINDOW.OBJ|C:\SOFTWARE\WORDSEARCH\X64\DEBUG\QRC_WORDSEARCH.OBJ|C:\SOFTWARE\WORDSEARCH\X64\DEBUG\STDAFX.OBJ|C:\SOFTWARE\WORDSEARCH\X64\DEBUG\WORDSEARCH.OBJ|C:\SOFTWARE\WORDSEARCH\X64\DEBUG\WORDSEARCH.RES|C:\SOFTWARE\WORDSEARCH\X64\DEBUG\WORDSEARCHWINDOW.OBJ
C:\SOFTWARE\WORDSEARCH\X64\DEBUG\WORDSEARCH.PDB
